[gd_scene load_steps=7 format=2]

[ext_resource path="res://sistema_de_combate/Armas/Arma.tscn" type="PackedScene" id=1]
[ext_resource path="res://recursos/armas/Dagas/tipos.png" type="Texture" id=2]
[ext_resource path="res://recursos/armas/VisualEffecs/Saber - Slash.png" type="Texture" id=3]
[ext_resource path="res://recursos/Audio/Armas/Daga.wav" type="AudioStream" id=4]
[ext_resource path="res://sistema_de_combate/Armas/Arma.gd" type="Script" id=5]

[sub_resource type="Animation" id=1]
resource_name = "Atacar"
length = 0.5
step = 0.05
tracks/0/type = "audio"
tracks/0/path = NodePath("Audio")
tracks/0/interp = 1
tracks/0/loop_wrap = true
tracks/0/imported = false
tracks/0/enabled = true
tracks/0/keys = {
"clips": [ {
"end_offset": 0.0,
"start_offset": 0.0,
"stream": ExtResource( 4 )
} ],
"times": PoolRealArray( 0.4 )
}
tracks/1/type = "value"
tracks/1/path = NodePath("Position2D:rotation_degrees")
tracks/1/interp = 1
tracks/1/loop_wrap = true
tracks/1/imported = false
tracks/1/enabled = true
tracks/1/keys = {
"times": PoolRealArray( 0, 0.1 ),
"transitions": PoolRealArray( 1, 1 ),
"update": 0,
"values": [ 0.0, -45.0 ]
}
tracks/2/type = "value"
tracks/2/path = NodePath("Position2D/Sprite:modulate")
tracks/2/interp = 1
tracks/2/loop_wrap = true
tracks/2/imported = false
tracks/2/enabled = true
tracks/2/keys = {
"times": PoolRealArray( 0, 0.35, 0.45 ),
"transitions": PoolRealArray( 1, 1, 1 ),
"update": 0,
"values": [ Color( 1, 1, 1, 1 ), Color( 1, 1, 1, 1 ), Color( 1, 1, 1, 0 ) ]
}
tracks/3/type = "value"
tracks/3/path = NodePath("Position2D:position")
tracks/3/interp = 1
tracks/3/loop_wrap = true
tracks/3/imported = false
tracks/3/enabled = true
tracks/3/keys = {
"times": PoolRealArray( 0, 0.35, 0.4 ),
"transitions": PoolRealArray( 1, 1, 1 ),
"update": 0,
"values": [ Vector2( 0, 0 ), Vector2( 0, 0 ), Vector2( -5, 0 ) ]
}
tracks/4/type = "value"
tracks/4/path = NodePath("EfectoVisual:modulate")
tracks/4/interp = 1
tracks/4/loop_wrap = true
tracks/4/imported = false
tracks/4/enabled = true
tracks/4/keys = {
"times": PoolRealArray( 0, 0.3, 0.45, 0.5 ),
"transitions": PoolRealArray( 1, 1, 1, 1 ),
"update": 0,
"values": [ Color( 1, 1, 1, 0 ), Color( 1, 1, 1, 0 ), Color( 1, 1, 1, 1 ), Color( 1, 1, 1, 0 ) ]
}

[node name="Daga" instance=ExtResource( 1 )]
script = ExtResource( 5 )
tipo_arma = "Daga"

[node name="Position2D" type="Position2D" parent="." index="0"]

[node name="Sprite" type="Sprite" parent="Position2D" index="0"]
position = Vector2( -16, -16 )
scale = Vector2( 0.5, 0.5 )
texture = ExtResource( 2 )
vframes = 5

[node name="Animaciones" parent="." index="1"]
anims/Atacar = SubResource( 1 )

[node name="Audio" parent="." index="2"]
stream = ExtResource( 4 )

[node name="EfectoVisual" parent="." index="3"]
modulate = Color( 1, 1, 1, 0 )
show_behind_parent = true
position = Vector2( -8, 0 )
rotation = 3.14159
scale = Vector2( 0.2, 0.2 )
texture = ExtResource( 3 )
region_enabled = true
region_rect = Rect2( 0, 360, 190, 100 )
