[gd_scene load_steps=3 format=2]

[ext_resource path="res://sistema_de_combate/Actores/Enemigos/Base/Ataque_base.gd" type="Script" id=1]
[ext_resource path="res://recursos/Enemigos/Murcielago_morado/bite-small3.wav" type="AudioStream" id=2]

[node name="Ataque" type="Node2D"]
script = ExtResource( 1 )

[node name="Audio" type="AudioStreamPlayer2D" parent="."]
stream = ExtResource( 2 )
attenuation = 0.329877
