[gd_scene load_steps=5 format=2]

[ext_resource path="res://sistema_de_combate/Actores/Enemigos/Base/Base.tscn" type="PackedScene" id=1]
[ext_resource path="res://recursos/Enemigos/ReyDemonio/ReyDemonio.png" type="Texture" id=2]
[ext_resource path="res://sistema_de_combate/Armas/wadañas/wadania.tscn" type="PackedScene" id=3]
[ext_resource path="res://recursos/personajes/maleHurt.ogg" type="AudioStream" id=4]

[node name="Base" groups=[
"ReyDemonio",
] instance=ExtResource( 1 )]
scale = Vector2( 2, 2 )
ataque_offset = -120.0

[node name="ArmaSlot" parent="." index="0"]
visible = false
position = Vector2( 16, 0 )

[node name="wadania" parent="ArmaSlot" index="0" instance=ExtResource( 3 )]
frame = 4

[node name="Sprite" parent="." index="1"]
texture = ExtResource( 2 )

[node name="Estadisticas" parent="." index="2"]
hp_max = 50000
mp_max = 100000
fuerza = 300
poder_magico = 350
resistencia = 120
resistencia_magica = 120
experiencia = 20000
nivel = 40
tiempo_espera = 10.0

[node name="Magia" parent="." index="10"]
magias_disponibles_flags = [ "Fulgur", "Sana", "Aqua", "Ignis" ]

[node name="HurtAudio" parent="." index="11"]
stream = ExtResource( 4 )
pitch_scale = 0.5
