[gd_scene load_steps=2 format=2]

[ext_resource path="res://sistema_de_combate/interfaz_batalla/MostrarCambioVida/mostrarCambioVida.gd" type="Script" id=2]

[node name="MostrarCambioVida" type="Control"]
margin_right = 1024.0
margin_bottom = 600.0
script = ExtResource( 2 )
__meta__ = {
"_edit_use_anchors_": false
}

[node name="Contenedor" type="VBoxContainer" parent="."]
margin_right = 100.0
margin_bottom = 24.0
grow_horizontal = 0
grow_vertical = 0
rect_min_size = Vector2( 100, 24 )
size_flags_horizontal = 2
size_flags_vertical = 2
custom_constants/separation = 0
__meta__ = {
"_edit_use_anchors_": false
}
