[gd_scene load_steps=5 format=2]

[ext_resource path="res://sistema_de_combate/Actores/Jugador/Jugador.tscn" type="PackedScene" id=1]
[ext_resource path="res://sistema_de_combate/Armas/Espadas/Espada.tscn" type="PackedScene" id=2]
[ext_resource path="res://recursos/personajes/CaballeroSagrado/Dead.png" type="Texture" id=3]
[ext_resource path="res://recursos/personajes/maleHurt.ogg" type="AudioStream" id=4]

[node name="Cabellero" instance=ExtResource( 1 )]
icono = "res://recursos/personajes/CaballeroSagrado/icono.png"
nombre = "Caballero"

[node name="Estadisticas" parent="." index="1"]
personaje_id = 0
hp_max = 150
mp_max = 30
fuerza = 40
poder_magico = 25
resistencia = 15
resistencia_magica = 10
tiempo_espera = 2.5
fuerza_level_up = 2
poder_magico_level_up = 2
resistencia_level_up = 2
resistencia_magica_level_up = 2
tiempo_de_espera_level_up = 0.013

[node name="Arma" parent="." index="5"]
position = Vector2( -16.7185, 4.5454 )

[node name="Espada" parent="Arma" index="0" instance=ExtResource( 2 )]
z_index = 1
frame = 2

[node name="Magia" parent="." index="9"]
magias_disponibles_flags = [ "Fulgur", "Aqua", "Sana", "Ignis" ]

[node name="DeadSprite" type="Sprite" parent="." index="10"]
visible = false
rotation = 1.5708
texture = ExtResource( 3 )

[node name="HurtAudio" parent="." index="12"]
stream = ExtResource( 4 )
pitch_scale = 1.15

[editable path="AreaSeleccionable"]
