[gd_scene load_steps=2 format=2]

[ext_resource path="res://sistema_de_combate/interfaz_batalla/interfaz_grupal/Interfaz_grupal.tscn" type="PackedScene" id=1]

[node name="Interfaz_batalla" type="Control"]
anchor_left = 0.008
anchor_top = 0.693
anchor_right = 1.0
anchor_bottom = 1.0
margin_left = -8.192
margin_top = 184.2
grow_horizontal = 2
grow_vertical = 0
rect_min_size = Vector2( 1024, 180 )
rect_clip_content = true
focus_mode = 2
mouse_filter = 1
__meta__ = {
"_edit_horizontal_guides_": [ 599.506 ],
"_edit_use_anchors_": false
}

[node name="Fondo" type="ColorRect" parent="."]
modulate = Color( 1, 1, 1, 0 )
anchor_top = -0.078
anchor_right = 1.0
anchor_bottom = 1.0
margin_top = 0.04
color = Color( 0, 0, 0, 1 )
__meta__ = {
"_edit_use_anchors_": false
}

[node name="ContenedorInterfaces" type="HBoxContainer" parent="."]
anchor_right = 1.0
anchor_bottom = 1.0
margin_left = 5.0
margin_top = 5.0
margin_right = -5.0
margin_bottom = -5.0
grow_horizontal = 2
grow_vertical = 2
rect_min_size = Vector2( 1024, 180 )
custom_constants/separation = 12
alignment = 1
__meta__ = {
"_edit_use_anchors_": false
}

[node name="ContenedorComandos" type="PanelContainer" parent="ContenedorInterfaces"]
margin_left = 17.0
margin_right = 381.0
margin_bottom = 184.0
grow_horizontal = 2
grow_vertical = 0
rect_min_size = Vector2( 364, 180 )
size_flags_horizontal = 5
size_flags_vertical = 5
__meta__ = {
"_edit_use_anchors_": false
}

[node name="Panel" type="Panel" parent="ContenedorInterfaces/ContenedorComandos"]
margin_left = 7.0
margin_top = 7.0
margin_right = 357.0
margin_bottom = 177.0

[node name="ContenedorGrupo" type="PanelContainer" parent="ContenedorInterfaces"]
margin_left = 393.0
margin_right = 1007.0
margin_bottom = 184.0
grow_horizontal = 2
grow_vertical = 2
rect_min_size = Vector2( 600, 0 )
size_flags_horizontal = 4
size_flags_vertical = 4

[node name="Panel" type="Panel" parent="ContenedorInterfaces/ContenedorGrupo"]
margin_left = 7.0
margin_top = 7.0
margin_right = 607.0
margin_bottom = 177.0

[node name="Interfaz_grupal" parent="ContenedorInterfaces/ContenedorGrupo" instance=ExtResource( 1 )]
anchor_top = 0.0
anchor_right = 0.0
anchor_bottom = 0.0
margin_left = 7.0
margin_top = 7.0
margin_right = 607.0
margin_bottom = 177.0
rect_clip_content = true
