[gd_scene load_steps=2 format=2]

[ext_resource path="res://icon.png" type="Texture" id=1]

[node name="PersonajeInfo" type="VBoxContainer"]
anchor_right = 0.146
anchor_bottom = 0.25
margin_right = 0.495987
grow_horizontal = 0
grow_vertical = 0
rect_min_size = Vector2( 150, 150 )
size_flags_vertical = 3
alignment = 1
__meta__ = {
"_edit_use_anchors_": false
}

[node name="Icono" type="TextureRect" parent="."]
margin_top = 3.0
margin_right = 150.0
margin_bottom = 103.0
grow_horizontal = 2
grow_vertical = 2
rect_min_size = Vector2( 100, 100 )
texture = ExtResource( 1 )
expand = true
stretch_mode = 6

[node name="Nombre" type="Label" parent="."]
margin_top = 107.0
margin_right = 150.0
margin_bottom = 147.0
rect_min_size = Vector2( 100, 40 )
text = "Nombre del personaje"
align = 1
valign = 1
